total 176
-rw-r--r--@ 1 ejrbalma  staff     14  6 oct 10:51 componentes.txt
-rw-r--r--  1 ejrbalma  staff  12366  4 oct 18:15 desa0file1.txt
-rw-r--r--  1 ejrbalma  staff      0  6 oct 11:08 desa0file2.txt
-rw-r--r--  1 ejrbalma  staff      5  4 oct 19:37 desa0file4.txt
-rw-r--r--  1 ejrbalma  staff    338  4 oct 18:49 desa1fich1.txt
-rw-r--r--  1 ejrbalma  staff  26053  4 oct 18:49 desa1file2.txt
-rw-r--r--  1 ejrbalma  staff    569  4 oct 19:18 desa1file3.txt
-rw-r--r--  1 ejrbalma  staff      6  4 oct 19:58 desa1file4.txt
-rw-r--r--  1 ejrbalma  staff    530  4 oct 19:33 desa2file1.txt
-rw-r--r--  1 ejrbalma  staff  12846  4 oct 19:58 desa2file2.txt
-rw-r--r--  1 ejrbalma  staff    204  4 oct 18:46 desafile2.txt
