-rw-r--r--  1 ejrbalma  staff      0 10 oct 13:36 desa2file1.txt
-rw-r--r--  1 ejrbalma  staff  12846  8 oct 18:29 desa2file2.txt
-rw-r--r--  1 ejrbalma  staff   2888 10 oct 12:08 desa2file3.txt
-rw-r--r--  1 ejrbalma  staff     54 10 oct 12:08 desa2file4.txt
-rw-r--r--  1 ejrbalma  staff      8 10 oct 13:34 desa2file5.txt
desa2file6.txt
